ParcialVfinal/Partesparcial2/simulation/qsim/ContadorenReversa.msim.vcd
$comment
	File created using the following command:
		vcd file ContadorenReversa.msim.vcd -direction
$end
$date
	Sun Apr 23 17:28:35 2023
$end
$version
	ModelSim Version 10.1d
$end
$timescale
	1ps
$end
$scope module ContadorenReversa_vlg_vec_tst $end
$var reg 1 ! carro_en_pq $end
$var reg 1 " clk $end
$var wire 1 # cout [5] $end
$var wire 1 $ cout [4] $end
$var wire 1 % cout [3] $end
$var wire 1 & cout [2] $end
$var wire 1 ' cout [1] $end
$var wire 1 ( cout [0] $end
$var wire 1 ) Felicitacion $end
$var wire 1 * RTCsegDec [2] $end
$var wire 1 + RTCsegDec [1] $end
$var wire 1 , RTCsegDec [0] $end
$var wire 1 - RTCsegUni [3] $end
$var wire 1 . RTCsegUni [2] $end
$var wire 1 / RTCsegUni [1] $end
$var wire 1 0 RTCsegUni [0] $end
$var wire 1 1 sampler $end
$scope module i1 $end
$var wire 1 2 gnd $end
$var wire 1 3 vcc $end
$var wire 1 4 unknown $end
$var tri1 1 5 devclrn $end
$var tri1 1 6 devpor $end
$var tri1 1 7 devoe $end
$var wire 1 8 Felicitacion~output_o $end
$var wire 1 9 RTCsegUni[0]~output_o $end
$var wire 1 : RTCsegUni[1]~output_o $end
$var wire 1 ; RTCsegUni[2]~output_o $end
$var wire 1 < RTCsegUni[3]~output_o $end
$var wire 1 = RTCsegDec[0]~output_o $end
$var wire 1 > RTCsegDec[1]~output_o $end
$var wire 1 ? RTCsegDec[2]~output_o $end
$var wire 1 @ cout[0]~output_o $end
$var wire 1 A cout[1]~output_o $end
$var wire 1 B cout[2]~output_o $end
$var wire 1 C cout[3]~output_o $end
$var wire 1 D cout[4]~output_o $end
$var wire 1 E cout[5]~output_o $end
$var wire 1 F carro_en_pq~input_o $end
$var wire 1 G clk~input_o $end
$var wire 1 H clk~inputclkctrl_outclk $end
$var wire 1 I Add1~1_cout $end
$var wire 1 J Add1~2_combout $end
$var wire 1 K contador[1]~6_combout $end
$var wire 1 L contar_tiempo:count2[20]~q $end
$var wire 1 M Add0~0_combout $end
$var wire 1 N Equal0~5_combout $end
$var wire 1 O Equal0~0_combout $end
$var wire 1 P Equal0~1_combout $end
$var wire 1 Q Equal0~3_combout $end
$var wire 1 R Equal0~2_combout $end
$var wire 1 S Equal0~4_combout $end
$var wire 1 T contar_tiempo:count2[22]~q $end
$var wire 1 U Add0~41 $end
$var wire 1 V Add0~42_combout $end
$var wire 1 W contar_tiempo:count2[21]~q $end
$var wire 1 X Add0~43 $end
$var wire 1 Y Add0~44_combout $end
$var wire 1 Z contar_tiempo:count2[23]~q $end
$var wire 1 [ Add0~45 $end
$var wire 1 \ Add0~46_combout $end
$var wire 1 ] contar_tiempo:count2[24]~q $end
$var wire 1 ^ Add0~47 $end
$var wire 1 _ Add0~48_combout $end
$var wire 1 ` Equal0~7_combout $end
$var wire 1 a count2~0_combout $end
$var wire 1 b contar_tiempo:count2[0]~q $end
$var wire 1 c Add0~1 $end
$var wire 1 d Add0~2_combout $end
$var wire 1 e contar_tiempo:count2[1]~q $end
$var wire 1 f Add0~3 $end
$var wire 1 g Add0~4_combout $end
$var wire 1 h contar_tiempo:count2[2]~q $end
$var wire 1 i Add0~5 $end
$var wire 1 j Add0~6_combout $end
$var wire 1 k contar_tiempo:count2[3]~q $end
$var wire 1 l Add0~7 $end
$var wire 1 m Add0~8_combout $end
$var wire 1 n contar_tiempo:count2[4]~q $end
$var wire 1 o Add0~9 $end
$var wire 1 p Add0~10_combout $end
$var wire 1 q contar_tiempo:count2[5]~q $end
$var wire 1 r Add0~11 $end
$var wire 1 s Add0~12_combout $end
$var wire 1 t contar_tiempo:count2[6]~q $end
$var wire 1 u Add0~13 $end
$var wire 1 v Add0~14_combout $end
$var wire 1 w contar_tiempo:count2[7]~q $end
$var wire 1 x Add0~15 $end
$var wire 1 y Add0~16_combout $end
$var wire 1 z contar_tiempo:count2[8]~q $end
$var wire 1 { Add0~17 $end
$var wire 1 | Add0~18_combout $end
$var wire 1 } contar_tiempo:count2[9]~q $end
$var wire 1 ~ Add0~19 $end
$var wire 1 !! Add0~20_combout $end
$var wire 1 "! contar_tiempo:count2[10]~q $end
$var wire 1 #! Add0~21 $end
$var wire 1 $! Add0~22_combout $end
$var wire 1 %! contar_tiempo:count2[11]~q $end
$var wire 1 &! Add0~23 $end
$var wire 1 '! Add0~24_combout $end
$var wire 1 (! contar_tiempo:count2[12]~q $end
$var wire 1 )! Add0~25 $end
$var wire 1 *! Add0~26_combout $end
$var wire 1 +! contar_tiempo:count2[13]~q $end
$var wire 1 ,! Add0~27 $end
$var wire 1 -! Add0~28_combout $end
$var wire 1 .! contar_tiempo:count2[14]~q $end
$var wire 1 /! Add0~29 $end
$var wire 1 0! Add0~30_combout $end
$var wire 1 1! contar_tiempo:count2[15]~q $end
$var wire 1 2! Add0~31 $end
$var wire 1 3! Add0~32_combout $end
$var wire 1 4! contar_tiempo:count2[16]~q $end
$var wire 1 5! Add0~33 $end
$var wire 1 6! Add0~34_combout $end
$var wire 1 7! contar_tiempo:count2[17]~q $end
$var wire 1 8! Add0~35 $end
$var wire 1 9! Add0~36_combout $end
$var wire 1 :! contar_tiempo:count2[18]~q $end
$var wire 1 ;! Add0~37 $end
$var wire 1 <! Add0~38_combout $end
$var wire 1 =! contar_tiempo:count2[19]~q $end
$var wire 1 >! Add0~39 $end
$var wire 1 ?! Add0~40_combout $end
$var wire 1 @! Equal0~6_combout $end
$var wire 1 A! contador[5]~2_combout $end
$var wire 1 B! contador[5]~3_combout $end
$var wire 1 C! Add1~3 $end
$var wire 1 D! Add1~4_combout $end
$var wire 1 E! Add1~5 $end
$var wire 1 F! Add1~6_combout $end
$var wire 1 G! Add1~7 $end
$var wire 1 H! Add1~8_combout $end
$var wire 1 I! Add1~9 $end
$var wire 1 J! Add1~10_combout $end
$var wire 1 K! contador[5]~5_combout $end
$var wire 1 L! LessThan0~0_combout $end
$var wire 1 M! Equal0~8_combout $end
$var wire 1 N! Equal0~9_combout $end
$var wire 1 O! contador[0]~4_combout $end
$var wire 1 P! LessThan0~1_combout $end
$var wire 1 Q! alarma_activa~0_combout $end
$var wire 1 R! alarma_activa~q $end
$var wire 1 S! Felicitacion$latch~combout $end
$var wire 1 T! SegUni[0]~2_combout $end
$var wire 1 U! RTCsegUni[3]~0_combout $end
$var wire 1 V! RTCsegUni[3]~0clkctrl_outclk $end
$var wire 1 W! RTCsegUni[0]$latch~combout $end
$var wire 1 X! SegUni~1_combout $end
$var wire 1 Y! Add2~0_combout $end
$var wire 1 Z! SegUni~0_combout $end
$var wire 1 [! RTCsegUni[1]$latch~combout $end
$var wire 1 \! RTCsegUni[2]$latch~combout $end
$var wire 1 ]! RTCsegUni[3]$latch~combout $end
$var wire 1 ^! SegDec[0]~2_combout $end
$var wire 1 _! SegDec[0]~0_combout $end
$var wire 1 `! SegDec[0]~1_combout $end
$var wire 1 a! RTCsegDec[0]$latch~combout $end
$var wire 1 b! Add3~0_combout $end
$var wire 1 c! RTCsegDec[1]$latch~combout $end
$var wire 1 d! Add3~1_combout $end
$var wire 1 e! RTCsegDec[2]$latch~combout $end
$var wire 1 f! cout[0]~1_combout $end
$var wire 1 g! cout[0]~reg0feeder_combout $end
$var wire 1 h! cout[5]~0_combout $end
$var wire 1 i! cout[0]~reg0_q $end
$var wire 1 j! cout[1]~2_combout $end
$var wire 1 k! cout[1]~reg0feeder_combout $end
$var wire 1 l! cout[1]~reg0_q $end
$var wire 1 m! cout[2]~reg0feeder_combout $end
$var wire 1 n! cout[2]~reg0_q $end
$var wire 1 o! cout[3]~reg0feeder_combout $end
$var wire 1 p! cout[3]~reg0_q $end
$var wire 1 q! cout[4]~reg0feeder_combout $end
$var wire 1 r! cout[4]~reg0_q $end
$var wire 1 s! cout[5]~3_combout $end
$var wire 1 t! cout[5]~reg0feeder_combout $end
$var wire 1 u! cout[5]~reg0_q $end
$var wire 1 v! SegDec [2] $end
$var wire 1 w! SegDec [1] $end
$var wire 1 x! SegDec [0] $end
$var wire 1 y! SegUni [3] $end
$var wire 1 z! SegUni [2] $end
$var wire 1 {! SegUni [1] $end
$var wire 1 |! SegUni [0] $end
$var wire 1 }! contador [5] $end
$var wire 1 ~! contador [4] $end
$var wire 1 !" contador [3] $end
$var wire 1 "" contador [2] $end
$var wire 1 #" contador [1] $end
$var wire 1 $" contador [0] $end
$upscope $end
$upscope $end
$enddefinitions $end
#0
$dumpvars
0!
0"
0"!
0#!
0$!
0%!
1&!
0'!
0(!
0)!
0*!
0+!
1,!
0-!
0.!
0/!
00!
01!
12!
03!
04!
05!
06!
07!
18!
09!
0:!
0;!
0<!
0=!
1>!
0?!
1@!
1A!
1B!
0C!
0D!
1E!
0F!
0G!
0H!
1I!
1J!
0K!
1L!
1M!
1N!
1O!
1P!
0Q!
0R!
xS!
1T!
0U!
0V!
xW!
0X!
0Y!
1Z!
x[!
x\!
x]!
0(
0'
0&
0%
0$
0#
x)
x,
x+
x*
x0
x/
x.
x-
x1
02
13
x4
15
16
17
x8
x9
x:
x;
x<
x=
x>
x?
0@
0A
0B
0C
0D
0E
0F
0G
0H
1I
1J
0K
0L
1M
1N
1O
1P
1Q
1R
1S
0T
0U
0V
0W
1X
0Y
0Z
0[
0\
0]
1^
0_
1`
0a
0b
0c
0d
0e
1f
0g
0h
0i
0j
0k
1l
0m
0n
0o
0p
0q
1r
0s
0t
0u
0v
0w
1x
0y
0z
0{
0|
0}
1~
0!!
1^!
0_!
0`!
xa!
0b!
xc!
0d!
xe!
1f!
1g!
0h!
0i!
1j!
1k!
0l!
0m!
0n!
0o!
0p!
0q!
0r!
1s!
1t!
0u!
0x!
0w!
0v!
0|!
0{!
0z!
0y!
0$"
0#"
0""
0!"
0~!
0}!
$end
#7500
1"
1G
1H
01
#15000
0"
0G
0H
11
#22500
1"
1G
1H
01
#30000
0"
0G
0H
11
#37500
1"
1G
1H
01
#45000
0"
0G
0H
11
#52500
1"
1G
1H
01
#60000
1!
0"
1F
0G
0H
11
1h!
1U!
1V!
1S!
18
1)
0e!
1c!
1a!
0]!
1\!
1[!
0W!
0?
1>
1=
0<
1;
1:
09
0*
1+
1,
0-
1.
1/
00
#67500
1"
1G
1H
01
1$"
1{!
1|!
1u!
1l!
1i!
0f!
0O!
0I
0T!
1E
1A
1@
1#
1'
1(
0[!
1W!
0g!
0J
0:
19
0/
10
1K
#75000
0"
0G
0H
11
#82500
1"
1G
1H
01
0$"
1#"
0|!
0i!
1f!
1O!
1I
0j!
1C!
1J
0Z!
1X!
1T!
0@
0(
0W!
1g!
0C!
0J
0k!
0E!
1D!
0K
09
00
1E!
0D!
1K
1G!
1F!
0G!
0F!
0I!
1H!
1I!
0H!
0J!
1J!
1K!
0K!
#90000
0"
0G
0H
11
#97500
1"
1G
1H
01
1$"
0{!
1z!
1|!
0l!
1i!
0f!
0O!
0I
0T!
0A
1@
0'
1(
1[!
0\!
1W!
0g!
1C!
1J
1:
0;
19
1/
0.
10
0E!
1D!
0K
1G!
1F!
0I!
1H!
0J!
1K!
#105000
0"
0G
0H
11
#112500
1"
1G
1H
01
0$"
1}!
1~!
1!"
1""
0#"
0|!
0i!
1f!
1O!
1I
0s!
1J!
1q!
1I!
0H!
1o!
0G!
0F!
1m!
1E!
0D!
1j!
0C!
0J
1Z!
1T!
0@
0(
0W!
1g!
1J
0t!
0K!
0J!
1H!
1F!
1k!
1D!
1K
09
00
0K
1K!
#120000
0"
0G
0H
11
#127500
1"
1G
1H
01
1$"
1{!
1|!
0u!
1r!
1p!
1n!
1l!
1i!
0f!
0O!
0I
0T!
0E
1D
1C
1B
1A
1@
0#
1$
1%
1&
1'
1(
0[!
1W!
0g!
0J
0:
19
0/
10
1K
#135000
0"
0G
0H
11
#142500
1"
1G
1H
01
0$"
1#"
0|!
0i!
1f!
1O!
1I
0j!
1C!
1J
1_!
1Y!
1T!
0@
0(
0W!
1g!
0C!
0J
0k!
0D!
0K
1`!
09
00
1D!
1K
#150000
0"
0G
0H
11
#157500
1"
1G
1H
01
1$"
1x!
1y!
1|!
0l!
1i!
0f!
0O!
0I
1b!
0^!
0_!
0T!
0A
1@
0'
1(
0a!
1]!
1W!
0g!
1C!
1J
0`!
0=
1<
19
0,
1-
10
0D!
0K
#165000
0"
0G
0H
11
#172500
1"
1G
1H
01
0$"
0""
0#"
0|!
0i!
1f!
1O!
1I
0m!
0E!
1D!
1j!
0C!
0J
0Z!
0Y!
0X!
1T!
0@
0(
0W!
1g!
1J
0F!
1k!
1E!
0D!
1K
09
00
0K
1F!
#180000
0"
0G
0H
11
#187500
1"
1G
1H
01
1$"
0{!
0y!
0z!
1|!
0n!
1l!
1i!
0f!
0O!
0I
0T!
0B
1A
1@
0&
1'
1(
1[!
0]!
1\!
1W!
0g!
0J
1:
0<
1;
19
1/
0-
1.
10
1K
#195000
0"
0G
0H
11
#202500
1"
1G
1H
01
0$"
1#"
0|!
0i!
1f!
1O!
1I
0j!
1C!
1J
1Z!
1T!
0@
0(
0W!
1g!
0C!
0J
0k!
0E!
1D!
0K
09
00
1E!
0D!
1K
0F!
1F!
#210000
0"
0G
0H
11
#217500
1"
1G
1H
01
1$"
1{!
1|!
0l!
1i!
0f!
0O!
0I
0T!
0A
1@
0'
1(
0[!
1W!
0g!
1C!
1J
0:
19
0/
10
0E!
1D!
0K
0F!
#225000
0"
0G
0H
11
#232500
1"
1G
1H
01
0$"
0!"
1""
0#"
0|!
0i!
1f!
1O!
1I
0o!
1G!
1F!
1m!
1E!
0D!
1j!
0C!
0J
0Z!
1X!
1T!
0@
0(
0W!
1g!
1J
0H!
0G!
0F!
1k!
1D!
1K
09
00
0K
1H!
#240000
0"
0G
0H
11
#247500
1"
1G
1H
01
1$"
0{!
1z!
1|!
0p!
1n!
1l!
1i!
0f!
0O!
0I
0T!
0C
1B
1A
1@
0%
1&
1'
1(
1[!
0\!
1W!
0g!
0J
1:
0;
19
1/
0.
10
1K
#255000
0"
0G
0H
11
#262500
1"
1G
1H
01
0$"
1#"
0|!
0i!
1f!
1O!
1I
0j!
1C!
1J
1Z!
1T!
0@
0(
0W!
1g!
0C!
0J
0k!
0D!
0K
09
00
1D!
1K
#270000
0"
0G
0H
11
#277500
1"
1G
1H
01
1$"
1{!
1|!
0l!
1i!
0f!
0O!
0I
0T!
0A
1@
0'
1(
0[!
1W!
0g!
1C!
1J
0:
19
0/
10
0D!
0K
#285000
0"
0G
0H
11
#292500
1"
1G
1H
01
0$"
0""
0#"
0|!
0i!
1f!
1O!
1I
0m!
0E!
1D!
1j!
0C!
0J
1_!
1Y!
1T!
0@
0(
0W!
1g!
1J
1G!
1F!
1k!
1E!
0D!
1K
1`!
09
00
0K
0H!
0G!
0F!
1H!
#300000
0"
0G
0H
11
#307500
1"
1G
1H
01
1$"
1w!
0x!
1y!
1|!
0n!
1l!
1i!
0f!
0O!
0I
1^!
0_!
0T!
0B
1A
1@
0&
1'
1(
0c!
1a!
1]!
1W!
0g!
0J
0`!
0>
1=
1<
19
0+
1,
1-
10
1K
#315000
0"
0G
0H
11
#322500
1"
1G
1H
01
0$"
1#"
0|!
0i!
1f!
1O!
1I
0j!
1C!
1J
0Z!
0Y!
0X!
1T!
0@
0(
0W!
1g!
0C!
0J
0k!
0E!
1D!
0K
09
00
1E!
0D!
1K
1G!
1F!
0G!
0F!
0H!
1H!
#330000
0"
0G
0H
11
#337500
1"
1G
1H
01
1$"
0{!
0y!
0z!
1|!
0l!
1i!
0f!
0O!
0I
0T!
0A
1@
0'
1(
1[!
0]!
1\!
1W!
0g!
1C!
1J
1:
0<
1;
19
1/
0-
1.
10
0E!
1D!
0K
1G!
1F!
0H!
#345000
0"
0G
0H
11
#352500
1"
1G
1H
01
0$"
0~!
1!"
1""
0#"
0|!
0i!
1f!
1O!
1I
0q!
0I!
1H!
1o!
0G!
0F!
1m!
1E!
0D!
1j!
0C!
0J
1Z!
1T!
0@
0(
0W!
1g!
1J
1J!
1I!
0H!
1F!
1k!
1D!
1K
09
00
0K
0K!
0J!
1K!
#360000
0"
0G
0H
11
#367500
1"
1G
1H
01
1$"
1{!
1|!
0r!
1p!
1n!
1l!
1i!
0f!
0O!
0I
0T!
0D
1C
1B
1A
1@
0$
1%
1&
1'
1(
0[!
1W!
0g!
0J
0:
19
0/
10
1K
#375000
0"
0G
0H
11
#382500
1"
1G
1H
01
0$"
1#"
0|!
0i!
1f!
1O!
1I
0j!
1C!
1J
0Z!
1X!
1T!
0@
0(
0W!
1g!
0C!
0J
0k!
0D!
0K
09
00
1D!
1K
#390000
0"
0G
0H
11
#397500
1"
1G
1H
01
1$"
0{!
1z!
1|!
0l!
1i!
0f!
0O!
0I
0T!
0A
1@
0'
1(
1[!
0\!
1W!
0g!
1C!
1J
1:
0;
19
1/
0.
10
0D!
0K
#405000
0"
0G
0H
11
#412500
1"
1G
1H
01
0$"
0""
0#"
0|!
0i!
1f!
1O!
1I
0m!
0E!
1D!
1j!
0C!
0J
1Z!
1T!
0@
0(
0W!
1g!
1J
0F!
1k!
1E!
0D!
1K
09
00
0K
1F!
#420000
0"
0G
0H
11
#427500
1"
1G
1H
01
1$"
1{!
1|!
0n!
1l!
1i!
0f!
0O!
0I
0T!
0B
1A
1@
0&
1'
1(
0[!
1W!
0g!
0J
0:
19
0/
10
1K
#435000
0"
0G
0H
11
#442500
1"
1G
1H
01
0$"
1#"
0|!
0i!
1f!
1O!
1I
0j!
1C!
1J
1_!
1Y!
1T!
0@
0(
0W!
1g!
0C!
0J
0k!
0E!
1D!
0K
1`!
09
00
1E!
0D!
1K
0F!
1F!
#450000
0"
0G
0H
11
#457500
1"
1G
1H
01
1$"
1x!
1y!
1|!
0l!
1i!
0f!
0O!
0I
1d!
0b!
0^!
0_!
0T!
0A
1@
0'
1(
0a!
1]!
1W!
0g!
1C!
1J
0`!
0=
1<
19
0,
1-
10
0E!
1D!
0K
0F!
#465000
0"
0G
0H
11
#472500
1"
1G
1H
01
0$"
0!"
1""
0#"
0|!
0i!
1f!
1O!
1I
0o!
1G!
1F!
1m!
1E!
0D!
1j!
0C!
0J
0Z!
0Y!
0X!
1T!
0@
0(
0W!
1g!
1J
0I!
1H!
0G!
0F!
1k!
1D!
1K
09
00
0K
1J!
1I!
0H!
0K!
0J!
1K!
#480000
0"
0G
0H
11
#487500
1"
1G
1H
01
1$"
0{!
0y!
0z!
1|!
0p!
1n!
1l!
1i!
0f!
0O!
0I
0T!
0C
1B
1A
1@
0%
1&
1'
1(
1[!
0]!
1\!
1W!
0g!
0J
1:
0<
1;
19
1/
0-
1.
10
1K
#495000
0"
0G
0H
11
#502500
1"
1G
1H
01
0$"
1#"
0|!
0i!
1f!
1O!
1I
0j!
1C!
1J
1Z!
1T!
0@
0(
0W!
1g!
0C!
0J
0k!
0D!
0K
09
00
1D!
1K
#510000
0"
0G
0H
11
#517500
1"
1G
1H
01
1$"
1{!
1|!
0l!
1i!
0f!
0O!
0I
0T!
0A
1@
0'
1(
0[!
1W!
0g!
1C!
1J
0:
19
0/
10
0D!
0K
#525000
0"
0G
0H
11
#532500
1"
1G
1H
01
0$"
0""
0#"
0|!
0i!
1f!
1O!
1I
0m!
0L!
0E!
1D!
1j!
0C!
0J
0Z!
1X!
1T!
0@
0(
0W!
1g!
1J
1G!
1F!
1k!
1E!
0D!
1K
09
00
0K
0I!
1H!
0G!
0F!
1J!
1I!
0H!
0K!
0J!
1K!
#540000
0"
0G
0H
11
#547500
1"
1G
1H
01
1$"
0{!
1z!
1|!
0n!
1l!
1i!
0f!
0O!
0I
0T!
0B
1A
1@
0&
1'
1(
1[!
0\!
1W!
0g!
0J
1:
0;
19
1/
0.
10
1K
#555000
0"
0G
0H
11
#562500
1"
1G
1H
01
0$"
1#"
0|!
0i!
1f!
1O!
1I
0j!
1C!
1J
1Z!
1T!
0@
0(
0W!
1g!
0C!
0J
0k!
0E!
1D!
0K
09
00
1E!
0D!
1K
1G!
1F!
0G!
0F!
0I!
1H!
1I!
0H!
1J!
0J!
0K!
1K!
#570000
0"
0G
0H
11
#577500
1"
1G
1H
01
1$"
1{!
1|!
0l!
1i!
0f!
0U!
0P!
0I
0T!
0A
1@
0V!
0'
1(
0[!
1W!
0g!
1Q!
0A!
1C!
1J
0:
19
0/
10
0B!
0E!
1D!
0K
1G!
1F!
0I!
1H!
1J!
0K!
#585000
0"
0G
0H
11
#592500
1"
1G
1H
01
1R!
0i!
0@
0(
0S!
08
0)
#600000
0"
0G
0H
11
#607500
1"
1G
1H
01
#615000
0"
0G
0H
11
#622500
1"
1G
1H
01
#630000
0"
0G
0H
11
#637500
1"
1G
1H
01
#645000
0"
0G
0H
11
#652500
1"
1G
1H
01
#660000
0"
0G
0H
11
#667500
1"
1G
1H
01
#675000
0"
0G
0H
11
#682500
1"
1G
1H
01
#690000
0"
0G
0H
11
#697500
1"
1G
1H
01
#705000
0"
0G
0H
11
#712500
1"
1G
1H
01
#720000
0"
0G
0H
11
#727500
1"
1G
1H
01
#735000
0"
0G
0H
11
#742500
1"
1G
1H
01
#750000
0"
0G
0H
11
#757500
1"
1G
1H
01
#765000
0"
0G
0H
11
#772500
1"
1G
1H
01
#780000
0!
0"
0F
0G
0H
11
0h!
0w!
0x!
0{!
0z!
0|!
0R!
0$"
0}!
0#"
0d!
1^!
0X!
1T!
1f!
1P!
1I
1s!
1L!
0J!
1j!
0C!
0J
1g!
0Q!
1A!
1J
1t!
1K!
1k!
1E!
0D!
1K
1B!
0K
0G!
0F!
1I!
0H!
1J!
0K!
#787500
1"
1G
1H
01
#795000
0"
0G
0H
11
#802500
1"
1G
1H
01
#810000
0"
0G
0H
11
#817500
1"
1G
1H
01
#825000
0"
0G
0H
11
#832500
1"
1G
1H
01
#840000
1!
0"
1F
0G
0H
11
1h!
1U!
1V!
1S!
18
1)
1c!
1a!
1\!
1[!
0W!
1>
1=
1;
1:
09
1+
1,
1.
1/
00
#847500
1"
1G
1H
01
1$"
1{!
1|!
1u!
1l!
1i!
0f!
0O!
0I
0T!
1E
1A
1@
1#
1'
1(
0[!
1W!
0g!
0J
0:
19
0/
10
1K
#855000
0"
0G
0H
11
#862500
1"
1G
1H
01
0$"
1#"
0|!
0i!
1f!
1O!
1I
0j!
1C!
1J
0Z!
1X!
1T!
0@
0(
0W!
1g!
0C!
0J
0k!
0E!
1D!
0K
09
00
1E!
0D!
1K
1G!
1F!
0G!
0F!
0I!
1H!
1I!
0H!
0J!
1J!
1K!
0K!
#870000
0"
0G
0H
11
#877500
1"
1G
1H
01
1$"
0{!
1z!
1|!
0l!
1i!
0f!
0O!
0I
0T!
0A
1@
0'
1(
1[!
0\!
1W!
0g!
1C!
1J
1:
0;
19
1/
0.
10
0E!
1D!
0K
1G!
1F!
0I!
1H!
0J!
1K!
#885000
0"
0G
0H
11
#892500
1"
1G
1H
01
0$"
1}!
1~!
1!"
1""
0#"
0|!
0i!
1f!
1O!
1I
0s!
1J!
1q!
1I!
0H!
1o!
0G!
0F!
1m!
1E!
0D!
1j!
0C!
0J
1Z!
1T!
0@
0(
0W!
1g!
1J
0t!
0K!
0J!
1H!
1F!
1k!
1D!
1K
09
00
0K
1K!
#900000
0"
0G
0H
11
#907500
1"
1G
1H
01
1$"
1{!
1|!
0u!
1r!
1p!
1n!
1l!
1i!
0f!
0O!
0I
0T!
0E
1D
1C
1B
1A
1@
0#
1$
1%
1&
1'
1(
0[!
1W!
0g!
0J
0:
19
0/
10
1K
#915000
0"
0G
0H
11
#922500
1"
1G
1H
01
0$"
1#"
0|!
0i!
1f!
1O!
1I
0j!
1C!
1J
1_!
1Y!
1T!
0@
0(
0W!
1g!
0C!
0J
0k!
0D!
0K
1`!
09
00
1D!
1K
#930000
0"
0G
0H
11
#937500
1"
1G
1H
01
1$"
1x!
1y!
1|!
0l!
1i!
0f!
0O!
0I
1b!
0^!
0_!
0T!
0A
1@
0'
1(
0a!
1]!
1W!
0g!
1C!
1J
0`!
0=
1<
19
0,
1-
10
0D!
0K
#945000
0"
0G
0H
11
#952500
1"
1G
1H
01
0$"
0""
0#"
0|!
0i!
1f!
1O!
1I
0m!
0E!
1D!
1j!
0C!
0J
0Z!
0Y!
0X!
1T!
0@
0(
0W!
1g!
1J
0F!
1k!
1E!
0D!
1K
09
00
0K
1F!
#960000
0"
0G
0H
11
#967500
1"
1G
1H
01
1$"
0{!
0y!
0z!
1|!
0n!
1l!
1i!
0f!
0O!
0I
0T!
0B
1A
1@
0&
1'
1(
1[!
0]!
1\!
1W!
0g!
0J
1:
0<
1;
19
1/
0-
1.
10
1K
#975000
0"
0G
0H
11
#982500
1"
1G
1H
01
0$"
1#"
0|!
0i!
1f!
1O!
1I
0j!
1C!
1J
1Z!
1T!
0@
0(
0W!
1g!
0C!
0J
0k!
0E!
1D!
0K
09
00
1E!
0D!
1K
0F!
1F!
#990000
0"
0G
0H
11
#997500
1"
1G
1H
01
1$"
1{!
1|!
0l!
1i!
0f!
0O!
0I
0T!
0A
1@
0'
1(
0[!
1W!
0g!
1C!
1J
0:
19
0/
10
0E!
1D!
0K
0F!
