ParcialVfinal/PartesParcial/simulation/qsim/Cronometro.msim.vcd
$comment
	File created using the following command:
		vcd file Cronometro.msim.vcd -direction
$end
$date
	Sat Apr 22 12:41:42 2023
$end
$version
	ModelSim Version 10.1d
$end
$timescale
	1ps
$end
$scope module Cronometro_vlg_vec_tst $end
$var reg 1 ! clk $end
$var reg 1 " Switche $end
$var wire 1 # Felicitacion $end
$var wire 1 $ Mu [3] $end
$var wire 1 % Mu [2] $end
$var wire 1 & Mu [1] $end
$var wire 1 ' Mu [0] $end
$var wire 1 ( Sd [2] $end
$var wire 1 ) Sd [1] $end
$var wire 1 * Sd [0] $end
$var wire 1 + Su [3] $end
$var wire 1 , Su [2] $end
$var wire 1 - Su [1] $end
$var wire 1 . Su [0] $end
$var wire 1 / sampler $end
$scope module i1 $end
$var wire 1 0 gnd $end
$var wire 1 1 vcc $end
$var wire 1 2 unknown $end
$var tri1 1 3 devclrn $end
$var tri1 1 4 devpor $end
$var tri1 1 5 devoe $end
$var wire 1 6 Su[0]~output_o $end
$var wire 1 7 Su[1]~output_o $end
$var wire 1 8 Su[2]~output_o $end
$var wire 1 9 Su[3]~output_o $end
$var wire 1 : Sd[0]~output_o $end
$var wire 1 ; Sd[1]~output_o $end
$var wire 1 < Sd[2]~output_o $end
$var wire 1 = Mu[0]~output_o $end
$var wire 1 > Mu[1]~output_o $end
$var wire 1 ? Mu[2]~output_o $end
$var wire 1 @ Mu[3]~output_o $end
$var wire 1 A Felicitacion~output_o $end
$var wire 1 B clk~input_o $end
$var wire 1 C clk~inputclkctrl_outclk $end
$var wire 1 D SegUni[0]~3_combout $end
$var wire 1 E Switche~input_o $end
$var wire 1 F Switche~inputclkctrl_outclk $end
$var wire 1 G Su[0]~reg0feeder_combout $end
$var wire 1 H Su[0]~reg0_q $end
$var wire 1 I SegUni[2]~1_combout $end
$var wire 1 J SegUni~2_combout $end
$var wire 1 K SegUni~0_combout $end
$var wire 1 L Su[1]~reg0feeder_combout $end
$var wire 1 M Su[1]~reg0_q $end
$var wire 1 N Su[2]~reg0feeder_combout $end
$var wire 1 O Su[2]~reg0_q $end
$var wire 1 P Su[3]~reg0feeder_combout $end
$var wire 1 Q Su[3]~reg0_q $end
$var wire 1 R SegDec[0]~2_combout $end
$var wire 1 S Equal0~0_combout $end
$var wire 1 T Sd[0]~reg0feeder_combout $end
$var wire 1 U Sd[0]~reg0_q $end
$var wire 1 V SegDec~1_combout $end
$var wire 1 W SegDec~0_combout $end
$var wire 1 X Sd[1]~reg0feeder_combout $end
$var wire 1 Y Sd[1]~reg0_q $end
$var wire 1 Z Sd[2]~reg0feeder_combout $end
$var wire 1 [ Sd[2]~reg0_q $end
$var wire 1 \ MinUni[0]~3_combout $end
$var wire 1 ] Tiempo~0_combout $end
$var wire 1 ^ Mu[0]~reg0feeder_combout $end
$var wire 1 _ Mu[0]~reg0_q $end
$var wire 1 ` MinUni[2]~1_combout $end
$var wire 1 a MinUni~2_combout $end
$var wire 1 b MinUni~0_combout $end
$var wire 1 c Mu[1]~reg0feeder_combout $end
$var wire 1 d Mu[1]~reg0_q $end
$var wire 1 e Mu[2]~reg0feeder_combout $end
$var wire 1 f Mu[2]~reg0_q $end
$var wire 1 g Mu[3]~reg0feeder_combout $end
$var wire 1 h Mu[3]~reg0_q $end
$var wire 1 i aux1[1]~6_combout $end
$var wire 1 j aux1[1]~7 $end
$var wire 1 k aux1[2]~8_combout $end
$var wire 1 l aux1[2]~9 $end
$var wire 1 m aux1[3]~10_combout $end
$var wire 1 n aux1[3]~11 $end
$var wire 1 o aux1[4]~12_combout $end
$var wire 1 p aux1[4]~13 $end
$var wire 1 q aux1[5]~14_combout $end
$var wire 1 r LessThan0~0_combout $end
$var wire 1 s aux1[5]~15 $end
$var wire 1 t aux1[6]~16_combout $end
$var wire 1 u LessThan0~1_combout $end
$var wire 1 v Felicitacion~reg0_q $end
$var wire 1 w SegUni [3] $end
$var wire 1 x SegUni [2] $end
$var wire 1 y SegUni [1] $end
$var wire 1 z SegUni [0] $end
$var wire 1 { aux1 [6] $end
$var wire 1 | aux1 [5] $end
$var wire 1 } aux1 [4] $end
$var wire 1 ~ aux1 [3] $end
$var wire 1 !! aux1 [2] $end
$var wire 1 "! aux1 [1] $end
$var wire 1 #! aux1 [0] $end
$var wire 1 $! SegDec [2] $end
$var wire 1 %! SegDec [1] $end
$var wire 1 &! SegDec [0] $end
$var wire 1 '! MinUni [3] $end
$var wire 1 (! MinUni [2] $end
$var wire 1 )! MinUni [1] $end
$var wire 1 *! MinUni [0] $end
$upscope $end
$upscope $end
$enddefinitions $end
#0
$dumpvars
0!
1"
0#
0'
0&
0%
0$
0*
0)
0(
0.
0-
0,
0+
x/
00
11
x2
13
14
15
06
07
08
09
0:
0;
0<
0=
0>
0?
0@
0A
0B
0C
1D
1E
1F
0G
0H
0I
0J
0K
0L
0M
0N
0O
0P
0Q
1R
0S
0T
0U
0V
0W
0X
0Y
0Z
0[
1\
0]
0^
0_
0`
0a
0b
0c
0d
0e
0f
0g
0h
0i
0j
0k
1l
0m
0n
0o
1p
0q
0r
0s
0t
1u
0v
0z
0y
0x
0w
z#!
0"!
0!!
0~
0}
0|
0{
0&!
0%!
0$!
0*!
0)!
0(!
0'!
$end
#5000
1!
1B
1C
0/
1z
1v
1i
1K
1G
0D
1A
1#
#10000
0!
0B
0C
1/
#15000
1!
1B
1C
0/
1"!
1y
0z
1H
1L
0G
1D
16
1.
#20000
0!
0B
0C
1/
#25000
1!
1B
1C
0/
1z
1M
0H
1j
0i
0K
1I
1G
0D
17
06
1-
0.
1k
#30000
0!
0B
0C
1/
#35000
1!
1B
1C
0/
1!!
0"!
0y
1x
0z
1H
0l
0k
0j
0L
1N
0G
1D
16
1.
1m
1l
1k
0m
#40000
0!
0B
0C
1/
#45000
1!
1B
1C
0/
1z
1O
0M
0H
1i
1K
1G
0D
18
07
06
1,
0-
0.
#50000
0!
0B
0C
1/
#55000
1!
1B
1C
0/
1"!
1y
0z
1H
1L
0G
1D
16
1.
#60000
0!
0B
0C
1/
#65000
1!
1B
1C
0/
1z
1M
0H
1j
0i
0K
1J
0I
1G
0D
17
06
1-
0.
0l
0k
1m
#70000
0!
0B
0C
1/
#75000
1!
1B
1C
0/
1~
0!!
0"!
0y
1w
0x
0z
1H
1n
0m
1l
1k
0j
0L
1P
0N
0G
1D
16
1.
1o
0n
1m
0k
0o
#80000
0!
0B
0C
1/
#85000
1!
1B
1C
0/
1z
1Q
0O
0M
0H
1i
1S
0J
1G
0D
19
08
07
06
1+
0,
0-
0.
#90000
0!
0B
0C
1/
#95000
1!
1B
1C
0/
1"!
1&!
0w
0z
1H
1W
1T
0R
0S
0P
0G
1D
16
1.
#100000
0!
0B
0C
1/
#105000
1!
1B
1C
0/
1z
1U
0Q
0H
1j
0i
1K
1G
0D
1:
09
06
1*
0+
0.
1k
#110000
0!
0B
0C
1/
#115000
1!
1B
1C
0/
1!!
0"!
1y
0z
1H
0l
0k
0j
1L
0G
1D
16
1.
1n
0m
1l
1k
1o
0n
1m
0o
#120000
0!
0B
0C
1/
#125000
1!
1B
1C
0/
1z
1M
0H
1i
0K
1I
1G
0D
17
06
1-
0.
#130000
0!
0B
0C
1/
#135000
1!
1B
1C
0/
1"!
0y
1x
0z
1H
0L
1N
0G
1D
16
1.
#140000
0!
0B
0C
1/
#145000
1!
1B
1C
0/
1z
1O
0M
0H
1j
0i
1K
1G
0D
18
07
06
1,
0-
0.
0l
0k
1n
0m
1o
#150000
0!
0B
0C
1/
#155000
1!
1B
1C
0/
1}
0~
0!!
0"!
1y
0z
1H
0p
0o
0n
1m
1l
1k
0j
1L
0G
1D
16
1.
1q
1p
1o
0m
0k
0q
#160000
0!
0B
0C
1/
#165000
1!
1B
1C
0/
1z
1M
0H
1i
0K
1J
0I
1G
0D
17
06
1-
0.
#170000
0!
0B
0C
1/
#175000
1!
1B
1C
0/
1"!
0y
1w
0x
0z
1H
0L
1P
0N
0G
1D
16
1.
#180000
0!
0B
0C
1/
#185000
1!
1B
1C
0/
1z
1Q
0O
0M
0H
1j
0i
1S
0J
1G
0D
19
08
07
06
1+
0,
0-
0.
1k
#190000
0!
0B
0C
1/
#195000
1!
1B
1C
0/
1!!
0"!
1%!
0&!
0w
0z
1H
0l
0k
0j
1X
0T
1R
0S
0P
0G
1D
16
1.
1m
1l
1k
0m
#200000
0!
0B
0C
1/
#205000
1!
1B
1C
0/
1z
1Y
0U
0Q
0H
1i
1K
1G
0D
1;
0:
09
06
1)
0*
0+
0.
#210000
0!
0B
0C
1/
#215000
1!
1B
1C
0/
1"!
1y
0z
1H
1L
0G
1D
16
1.
#220000
0!
0B
0C
1/
#225000
1!
1B
1C
0/
1z
1M
0H
1j
0i
0K
1I
1G
0D
17
06
1-
0.
0l
0k
1m
#230000
0!
0B
0C
1/
#235000
1!
1B
1C
0/
1~
0!!
0"!
0y
1x
0z
1H
1n
0m
1l
1k
0j
0L
1N
0G
1D
16
1.
0p
0o
0n
1m
0k
1q
1p
1o
0q
#240000
0!
0B
0C
1/
#245000
1!
1B
1C
0/
1z
1O
0M
0H
1i
1K
1G
0D
18
07
06
1,
0-
0.
#250000
0!
0B
0C
1/
#255000
1!
1B
1C
0/
1"!
1y
0z
1H
1L
0G
1D
16
1.
#260000
0!
0B
0C
1/
#265000
1!
1B
1C
0/
1z
1M
0H
1j
0i
0K
1J
0I
1G
0D
17
06
1-
0.
1k
#270000
0!
0B
0C
1/
#275000
1!
1B
1C
0/
1!!
0"!
0y
1w
0x
0z
1H
0l
0k
0j
0L
1P
0N
0G
1D
16
1.
1n
0m
1l
1k
0p
0o
0n
1m
1q
1p
1o
0q
#280000
0!
0B
0C
1/
#285000
1!
1B
1C
0/
1z
1Q
0O
0M
0H
1i
1S
0J
1G
0D
19
08
07
06
1+
0,
0-
0.
#290000
0!
0B
0C
1/
#295000
1!
1B
1C
0/
1"!
1&!
0w
0z
1H
0W
1V
1T
0R
0S
0P
0G
1D
16
1.
#300000
0!
0B
0C
1/
#305000
1!
1B
1C
0/
1z
1U
0Q
0H
1j
0i
1K
1G
0D
1:
09
06
1*
0+
0.
0l
0k
1n
0m
0p
0o
1q
#310000
0!
0B
0C
1/
#315000
1!
1B
1C
0/
1|
0}
0~
0!!
0"!
1y
0z
1H
1s
0q
1p
1o
0n
1m
1l
1k
0j
1L
0G
1D
16
1.
1t
0s
1q
0o
0m
0k
0t
#320000
0!
0B
0C
1/
#325000
1!
1B
1C
0/
1z
1M
0H
1i
0K
1I
1G
0D
17
06
1-
0.
#330000
0!
0B
0C
1/
#335000
1!
1B
1C
0/
1"!
0y
1x
0z
1H
0L
1N
0G
1D
16
1.
#340000
0!
0B
0C
1/
#345000
1!
1B
1C
0/
1z
1O
0M
0H
1j
0i
1K
1G
0D
18
07
06
1,
0-
0.
1k
#350000
0!
0B
0C
1/
#355000
1!
1B
1C
0/
1!!
0"!
1y
0z
1H
1r
0l
0k
0j
1L
0G
1D
16
1.
0u
1m
1l
1k
0m
#360000
0!
0B
0C
1/
#365000
1!
1B
1C
0/
1z
0v
1M
0H
1i
0K
1J
0I
1G
0D
0A
17
06
0#
1-
0.
#370000
0!
0B
0C
1/
#375000
1!
1B
1C
0/
1"!
0y
1w
0x
0z
1H
0L
1P
0N
0G
1D
16
1.
#380000
0!
0B
0C
1/
#385000
1!
1B
1C
0/
1z
1Q
0O
0M
0H
1j
0i
1S
0J
1G
0D
19
08
07
06
1+
0,
0-
0.
0l
0k
1m
#390000
0!
0B
0C
1/
#395000
1!
1B
1C
0/
1~
0!!
0"!
0%!
1$!
0&!
0w
0z
1H
1n
0m
1l
1k
0j
0X
1Z
0T
1R
0S
0P
0G
1D
16
1.
1o
0n
1m
0k
0o
#400000
0!
0B
0C
1/
#405000
1!
1B
1C
0/
1z
1[
0Y
0U
0Q
0H
1i
1K
1G
0D
1<
0;
0:
09
06
1(
0)
0*
0+
0.
#410000
0!
0B
0C
1/
#415000
1!
1B
1C
0/
1"!
1y
0z
1H
1L
0G
1D
16
1.
#420000
0!
0B
0C
1/
#425000
1!
1B
1C
0/
1z
1M
0H
1j
0i
0K
1I
1G
0D
17
06
1-
0.
1k
#430000
0!
0B
0C
1/
#435000
1!
1B
1C
0/
1!!
0"!
0y
1x
0z
1H
0l
0k
0j
0L
1N
0G
1D
16
1.
1n
0m
1l
1k
1o
0n
1m
0o
#440000
0!
0B
0C
1/
#445000
1!
1B
1C
0/
1z
1O
0M
0H
1i
1K
1G
0D
18
07
06
1,
0-
0.
#450000
0!
0B
0C
1/
#455000
1!
1B
1C
0/
1"!
1y
0z
1H
1L
0G
1D
16
1.
#460000
0!
0B
0C
1/
#465000
1!
1B
1C
0/
1z
1M
0H
1j
0i
0K
1J
0I
1G
0D
17
06
1-
0.
0l
0k
1n
0m
1o
#470000
0!
0B
0C
1/
#475000
1!
1B
1C
0/
1}
0~
0!!
0"!
0y
1w
0x
0z
1H
0p
0o
0n
1m
1l
1k
0j
0L
1P
0N
0G
1D
16
1.
1s
0q
1p
1o
0m
0k
1t
0s
1q
0t
#480000
0!
0B
0C
1/
#485000
1!
1B
1C
0/
1z
1Q
0O
0M
0H
1i
1S
0J
1G
0D
19
08
07
06
1+
0,
0-
0.
#490000
0"
0!
0E
0B
0F
0C
1/
0|
0}
0$!
0w
0z
0r
0q
0o
0Z
0V
0S
0P
0i
0G
1D
1u
#495000
1!
1B
1C
0/
#500000
0!
0B
0C
1/
#505000
1!
1B
1C
0/
#510000
0!
0B
0C
1/
#515000
1!
1B
1C
0/
#520000
0!
0B
0C
1/
#525000
1!
1B
1C
0/
#530000
1"
0!
1E
0B
1F
0C
1/
#535000
1!
1B
1C
0/
1z
1v
0[
0Q
1i
1K
1G
0D
1A
0<
09
1#
0(
0+
#540000
0!
0B
0C
1/
#545000
1!
1B
1C
0/
1"!
1y
0z
1H
1L
0G
1D
16
1.
#550000
0!
0B
0C
1/
#555000
1!
1B
1C
0/
1z
1M
0H
1j
0i
0K
1I
1G
0D
17
06
1-
0.
1k
#560000
0!
0B
0C
1/
#565000
1!
1B
1C
0/
1!!
0"!
0y
1x
0z
1H
0l
0k
0j
0L
1N
0G
1D
16
1.
1m
1l
1k
0m
#570000
0!
0B
0C
1/
#575000
1!
1B
1C
0/
1z
1O
0M
0H
1i
1K
1G
0D
18
07
06
1,
0-
0.
#580000
0!
0B
0C
1/
#585000
1!
1B
1C
0/
1"!
1y
0z
1H
1L
0G
1D
16
1.
#590000
0!
0B
0C
1/
#595000
1!
1B
1C
0/
1z
1M
0H
1j
0i
0K
1J
0I
1G
0D
17
06
1-
0.
0l
0k
1m
#600000
0!
0B
0C
1/
#605000
1!
1B
1C
0/
1~
0!!
0"!
0y
1w
0x
0z
1H
1n
0m
1l
1k
0j
0L
1P
0N
0G
1D
16
1.
1o
0n
1m
0k
0o
#610000
0!
0B
0C
1/
#615000
1!
1B
1C
0/
1z
1Q
0O
0M
0H
1i
1S
0J
1G
0D
19
08
07
06
1+
0,
0-
0.
#620000
0!
0B
0C
1/
#625000
1!
1B
1C
0/
1"!
1&!
0w
0z
1H
1W
1T
0R
0S
0P
0G
1D
16
1.
#630000
0!
0B
0C
1/
#635000
1!
1B
1C
0/
1z
1U
0Q
0H
1j
0i
1K
1G
0D
1:
09
06
1*
0+
0.
1k
#640000
0!
0B
0C
1/
#645000
1!
1B
1C
0/
1!!
0"!
1y
0z
1H
0l
0k
0j
1L
0G
1D
16
1.
1n
0m
1l
1k
1o
0n
1m
0o
#650000
0!
0B
0C
1/
#655000
1!
1B
1C
0/
1z
1M
0H
1i
0K
1I
1G
0D
17
06
1-
0.
#660000
0!
0B
0C
1/
#665000
1!
1B
1C
0/
1"!
0y
1x
0z
1H
0L
1N
0G
1D
16
1.
#670000
0!
0B
0C
1/
#675000
1!
1B
1C
0/
1z
1O
0M
0H
1j
0i
1K
1G
0D
18
07
06
1,
0-
0.
0l
0k
1n
0m
1o
#680000
0!
0B
0C
1/
#685000
1!
1B
1C
0/
1}
0~
0!!
0"!
1y
0z
1H
0p
0o
0n
1m
1l
1k
0j
1L
0G
1D
16
1.
1q
1p
1o
0m
0k
0q
#690000
0!
0B
0C
1/
#695000
1!
1B
1C
0/
1z
1M
0H
1i
0K
1J
0I
1G
0D
17
06
1-
0.
#700000
0!
0B
0C
1/
#705000
1!
1B
1C
0/
1"!
0y
1w
0x
0z
1H
0L
1P
0N
0G
1D
16
1.
#710000
0!
0B
0C
1/
#715000
1!
1B
1C
0/
1z
1Q
0O
0M
0H
1j
0i
1S
0J
1G
0D
19
08
07
06
1+
0,
0-
0.
1k
#720000
0!
0B
0C
1/
#725000
1!
1B
1C
0/
1!!
0"!
1%!
0&!
0w
0z
1H
0l
0k
0j
1X
0T
1R
0S
0P
0G
1D
16
1.
1m
1l
1k
0m
#730000
0!
0B
0C
1/
#735000
1!
1B
1C
0/
1z
1Y
0U
0Q
0H
1i
1K
1G
0D
1;
0:
09
06
1)
0*
0+
0.
#740000
0!
0B
0C
1/
#745000
1!
1B
1C
0/
1"!
1y
0z
1H
1L
0G
1D
16
1.
#750000
0!
0B
0C
1/
#755000
1!
1B
1C
0/
1z
1M
0H
1j
0i
0K
1I
1G
0D
17
06
1-
0.
0l
0k
1m
#760000
0!
0B
0C
1/
#765000
1!
1B
1C
0/
1~
0!!
0"!
0y
1x
0z
1H
1n
0m
1l
1k
0j
0L
1N
0G
1D
16
1.
0p
0o
0n
1m
0k
1q
1p
1o
0q
#770000
0!
0B
0C
1/
#775000
1!
1B
1C
0/
1z
1O
0M
0H
1i
1K
1G
0D
18
07
06
1,
0-
0.
#780000
0!
0B
0C
1/
#785000
1!
1B
1C
0/
1"!
1y
0z
1H
1L
0G
1D
16
1.
#790000
0!
0B
0C
1/
#795000
1!
1B
1C
0/
1z
1M
0H
1j
0i
0K
1J
0I
1G
0D
17
06
1-
0.
1k
#800000
0!
0B
0C
1/
#805000
1!
1B
1C
0/
1!!
0"!
0y
1w
0x
0z
1H
0l
0k
0j
0L
1P
0N
0G
1D
16
1.
1n
0m
1l
1k
0p
0o
0n
1m
1q
1p
1o
0q
#810000
0!
0B
0C
1/
#815000
1!
1B
1C
0/
1z
1Q
0O
0M
0H
1i
1S
0J
1G
0D
19
08
07
06
1+
0,
0-
0.
#820000
0!
0B
0C
1/
#825000
1!
1B
1C
0/
1"!
1&!
0w
0z
1H
0W
1V
1T
0R
0S
0P
0G
1D
16
1.
#830000
0!
0B
0C
1/
#835000
1!
1B
1C
0/
1z
1U
0Q
0H
1j
0i
1K
1G
0D
1:
09
06
1*
0+
0.
0l
0k
1n
0m
0p
0o
1q
#840000
0!
0B
0C
1/
#845000
1!
1B
1C
0/
1|
0}
0~
0!!
0"!
1y
0z
1H
1s
0q
1p
1o
0n
1m
1l
1k
0j
1L
0G
1D
16
1.
1t
0s
1q
0o
0m
0k
0t
#850000
0!
0B
0C
1/
#855000
1!
1B
1C
0/
1z
1M
0H
1i
0K
1I
1G
0D
17
06
1-
0.
#860000
0!
0B
0C
1/
#865000
1!
1B
1C
0/
1"!
0y
1x
0z
1H
0L
1N
0G
1D
16
1.
#870000
0!
0B
0C
1/
#875000
1!
1B
1C
0/
1z
1O
0M
0H
1j
0i
1K
1G
0D
18
07
06
1,
0-
0.
1k
#880000
0!
0B
0C
1/
#885000
1!
1B
1C
0/
1!!
0"!
1y
0z
1H
1r
0l
0k
0j
1L
0G
1D
16
1.
0u
1m
1l
1k
0m
#890000
0!
0B
0C
1/
#895000
1!
1B
1C
0/
1z
0v
1M
0H
1i
0K
1J
0I
1G
0D
0A
17
06
0#
1-
0.
#900000
0!
0B
0C
1/
#905000
1!
1B
1C
0/
1"!
0y
1w
0x
0z
1H
0L
1P
0N
0G
1D
16
1.
#910000
0!
0B
0C
1/
#915000
1!
1B
1C
0/
1z
1Q
0O
0M
0H
1j
0i
1S
0J
1G
0D
19
08
07
06
1+
0,
0-
0.
0l
0k
1m
#920000
0!
0B
0C
1/
#925000
1!
1B
1C
0/
1~
0!!
0"!
0%!
1$!
0&!
0w
0z
1H
1n
0m
1l
1k
0j
0X
1Z
0T
1R
0S
0P
0G
1D
16
1.
1o
0n
1m
0k
0o
#930000
0!
0B
0C
1/
#935000
1!
1B
1C
0/
1z
1[
0Y
0U
0Q
0H
1i
1K
1G
0D
1<
0;
0:
09
06
1(
0)
0*
0+
0.
#940000
0!
0B
0C
1/
#945000
1!
1B
1C
0/
1"!
1y
0z
1H
1L
0G
1D
16
1.
#950000
0!
0B
0C
1/
#955000
1!
1B
1C
0/
1z
1M
0H
1j
0i
0K
1I
1G
0D
17
06
1-
0.
1k
#960000
0!
0B
0C
1/
#965000
1!
1B
1C
0/
1!!
0"!
0y
1x
0z
1H
0l
0k
0j
0L
1N
0G
1D
16
1.
1n
0m
1l
1k
1o
0n
1m
0o
#970000
0!
0B
0C
1/
#975000
1!
1B
1C
0/
1z
1O
0M
0H
1i
1K
1G
0D
18
07
06
1,
0-
0.
#980000
0!
0B
0C
1/
#985000
1!
1B
1C
0/
1"!
1y
0z
1H
1L
0G
1D
16
1.
#990000
0!
0B
0C
1/
#995000
1!
1B
1C
0/
1z
1M
0H
1j
0i
0K
1J
0I
1G
0D
17
06
1-
0.
0l
0k
1n
0m
1o
